module go-fiber-starter

go 1.18

require (
	github.com/gammazero/workerpool v1.1.3
	github.com/go-playground/validator v9.31.0+incompatible
	github.com/gofiber/contrib/fiberzap v0.0.0-20230113074415-4d4a0314fd41
	github.com/gofiber/fiber/v2 v2.41.0
	github.com/gofiber/storage/redis v0.0.0-20221228145945-bf4e3420c138
	github.com/golang-jwt/jwt v3.2.2+incompatible
	github.com/google/uuid v1.3.0
	github.com/joho/godotenv v1.3.0
	github.com/mitchellh/mapstructure v1.5.0
	github.com/natefinch/lumberjack v2.0.0+incompatible
	github.com/rabbitmq/amqp091-go v1.5.0
	github.com/valyala/fasthttp v1.44.0
	github.com/wagslane/go-rabbitmq v0.10.0
	github.com/xuri/excelize/v2 v2.6.1
	go.uber.org/zap v1.24.0
	golang.org/x/crypto v0.0.0-20220817201139-bc19a97f63c8
	gorm.io/driver/mysql v1.4.2
	gorm.io/driver/postgres v1.4.4
	gorm.io/gorm v1.23.8
)

require (
	github.com/BurntSushi/toml v1.0.0 // indirect
	github.com/andybalholm/brotli v1.0.4 // indirect
	github.com/cespare/xxhash/v2 v2.1.2 // indirect
	github.com/dgryski/go-rendezvous v0.0.0-20200823014737-9f7001d12a5f // indirect
	github.com/gammazero/deque v0.2.0 // indirect
	github.com/go-playground/locales v0.13.0 // indirect
	github.com/go-playground/universal-translator v0.17.0 // indirect
	github.com/go-redis/redis/v8 v8.11.5 // indirect
	github.com/go-sql-driver/mysql v1.6.0 // indirect
	github.com/jackc/chunkreader/v2 v2.0.1 // indirect
	github.com/jackc/pgconn v1.13.0 // indirect
	github.com/jackc/pgio v1.0.0 // indirect
	github.com/jackc/pgpassfile v1.0.0 // indirect
	github.com/jackc/pgproto3/v2 v2.3.1 // indirect
	github.com/jackc/pgservicefile v0.0.0-20200714003250-2b9c44734f2b // indirect
	github.com/jackc/pgtype v1.12.0 // indirect
	github.com/jackc/pgx/v4 v4.17.2 // indirect
	github.com/jinzhu/inflection v1.0.0 // indirect
	github.com/jinzhu/now v1.1.5 // indirect
	github.com/klauspost/compress v1.15.12 // indirect
	github.com/leodido/go-urn v1.2.1 // indirect
	github.com/mattn/go-colorable v0.1.13 // indirect
	github.com/mattn/go-isatty v0.0.17 // indirect
	github.com/mattn/go-runewidth v0.0.14 // indirect
	github.com/mohae/deepcopy v0.0.0-20170929034955-c48cc78d4826 // indirect
	github.com/richardlehane/mscfb v1.0.4 // indirect
	github.com/richardlehane/msoleps v1.0.3 // indirect
	github.com/rivo/uniseg v0.4.3 // indirect
	github.com/valyala/bytebufferpool v1.0.0 // indirect
	github.com/valyala/tcplisten v1.0.0 // indirect
	github.com/xuri/efp v0.0.0-20220603152613-6918739fd470 // indirect
	github.com/xuri/nfp v0.0.0-20220409054826-5e722a1d9e22 // indirect
	go.uber.org/atomic v1.10.0 // indirect
	go.uber.org/multierr v1.8.0 // indirect
	golang.org/x/net v0.0.0-20220906165146-f3363e06e74c // indirect
	golang.org/x/sys v0.3.0 // indirect
	golang.org/x/text v0.3.7 // indirect
	gopkg.in/go-playground/assert.v1 v1.2.1 // indirect
	gopkg.in/natefinch/lumberjack.v2 v2.0.0 // indirect
)
